
{
  "testUrl":"http://192.168.0.144:8080/enam/api/view/",
  "authUrl":"http://192.168.0.144:8080/enam/api/view/",
  "loginUrl":"http://192.168.0.144:8080/enam/api/login",
  "captchaUrl": "http://192.168.0.144:8080/enam/api/captcha/image",
  "logoutUrl":"http://192.168.0.144:8080/enam/api/logout",
  "bidauthUrl":"http://192.168.0.144:8080/enam/api/view/newBidList/",
  "getpdf":"http://192.168.0.144:8080/enam/api/view/pdf",
  "addprefer":"http://192.168.0.144:8080/enam/api/view/onAddPrefferedCommodity",
  "bidauthUrlPagination":"http://192.168.0.144:8080/enam/api/view/newBidListPagi/",
  "bidnow":"http://192.168.0.144:8080/enam/api/view/bidNow",
  "eng":"http://staging.techl33t.com/enam/dist/",
  "hi":"http://staging.techl33t.com/enam/dist/hi",
  "gu":"http://staging.techl33t.com/enam/dist/gu",
  "te":"http://staging.techl33t.com/enam/dist/te",
  "bn":"http://staging.techl33t.com/enam/dist/bn",
  "mr":"http://staging.techl33t.com/enam/dist/mr"
}
