{
    "testUrl":"http://staging.techl33t.com:8181/enam/api/view/",
    "authUrl":"http://staging.techl33t.com:8181/enam/api/view/",
    "loginUrl":"http://staging.techl33t.com:8181/enam/api/login",
    "captchaUrl": "http://staging.techl33t.com:8181/enam/api/captcha/image",
    "logoutUrl":"http://staging.techl33t.com:8181/enam/api/logout",
    "bidauthUrl":"http://staging.techl33t.com:8181/enam/api/view/newBidList/",
    "getpdf":"http://staging.techl33t.com:8181/enam/api/view/pdf",
    "addprefer":"http://staging.techl33t.com:8181/enam/api/view/onAddPrefferedCommodity",
    "bidauthUrlPagination":"http://staging.techl33t.com:8181/enam/api/view/newBidListPagi/",
    "bidnow":"http://staging.techl33t.com:8181/enam/api/view/bidNow",
    "eng":"http://staging.techl33t.com/enam/dist/",
    "hi":"http://staging.techl33t.com/enam/dist/hi",
    "gu":"http://staging.techl33t.com/enam/dist/gu",
    "te":"http://staging.techl33t.com/enam/dist/te",
    "bn":"http://staging.techl33t.com/enam/dist/bn",
    "mr":"http://staging.techl33t.com/enam/dist/mr"
  }